; Engine configuration file.
; It's best edited using the editor UI and not directly,
; since the parameters that go here are not all obvious.
;
; Format:
;   [section] ; section goes between []
;   param=value ; assign values to parameters

config_version=5

[application]

config/name="GoDark"
run/main_scene="res://main.tscn"
config/features=PackedStringArray("4.2", "C#", "Forward Plus")
config/icon="res://icon.svg"

[dotnet]

project/assembly_name="GoDark"

[gui]

theme/default_theme_scale=0.75
